%YAML 1.1
%TAG !u! tag:unity3d.com,2011:
--- !u!114 &11400000
MonoBehaviour:
  m_ObjectHideFlags: 0
  m_CorrespondingSourceObject: {fileID: 0}
  m_PrefabInstance: {fileID: 0}
  m_PrefabAsset: {fileID: 0}
  m_GameObject: {fileID: 0}
  m_Enabled: 1
  m_EditorHideFlags: 0
  m_Script: {fileID: 11500000, guid: b59d7237425a41e98b98ad43f33e3a78, type: 3}
  m_Name: PlatformTypeInstaller
  m_EditorClassIdentifier: 
  platformTypeDatabase: {fileID: 11400000, guid: 2ad1314def62c804e8ab812b30b91877, type: 2}
